How to Use PhenotypeLibrary R Package • PhenotypeLibrary
…
Installation

This is an installable R-package that may be installed as
follows:

remotes::install_github("OHDSI/PhenotypeLibrary")

Retrieval

The list of cohort definitions available may be retrieved as
follows:

PhenotypeLibrary::listPhenotypes()

#> # A tibble: 208 x 16
#>    cohortId cohor~1 descr~2 createdD~3 modified~4 libra~5 cohor~6 lastM~7 status
#>       <dbl> <chr>   <chr>   <date>     <date>     <chr>   <chr>   <lgl>   <chr> 
#>  1        2 [W] CO~ "Statu~ 2021-09-22 2023-03-14 rao@oh~ COVID-~ NA      Withd~
#>  2        3 [P] Co~ "Statu~ 2021-09-22 2023-01-03 rao@oh~ Cough ~ NA      Pendi~
#>  3        4 [P] Di~ "Statu~ 2021-09-23 2023-01-03 rao@oh~ Diarrh~ NA      Pendi~
#>  4        5 [P] Dy~ "Statu~ 2021-09-23 2023-01-03 rao@oh~ Dyspne~ NA      Pendi~
#>  5        6 [P] Fe~ "Statu~ 2021-09-23 2023-02-12 rao@oh~ Fever ~ NA      Pendi~
#>  6        7 [P] He~ "Statu~ 2021-09-23 2023-02-12 rao@oh~ Headac~ NA      Pendi~
#>  7        8 [P] Al~ "Statu~ 2021-09-23 2023-02-12 rao@oh~ Altere~ NA      Pendi~
#>  8        9 [P] So~ "Statu~ 2021-09-23 2023-02-12 rao@oh~ Sore t~ NA      Pendi~
#>  9       10 [P] Na~ "Statu~ 2021-09-23 2022-12-06 rao@oh~ Nausea~ NA      Pendi~
#> 10       11 [P] Ma~ "Statu~ 2021-09-23 2023-02-12 rao@oh~ Malais~ NA      Pendi~
#> # ... with 198 more rows, 7 more variables: logicDescription <chr>,
#> #   hashTag <chr>, contributor <chr>, Forum <chr>, addedVersion <chr>,
#> #   peer <chr>, Reviewer <lgl>, and abbreviated variable names 1: cohortName,
#> #   2: description, 3: createdDate, 4: modifiedDate, 5: librarian,
#> #   6: cohortNameFormatted, 7: lastModifiedBy
…
